%YAML 1.1
%TAG !u! tag:unity3d.com,2011:
--- !u!1045 &1
EditorBuildSettings:
  m_ObjectHideFlags: 0
  serializedVersion: 2
  m_Scenes:
  - enabled: 1
    path: Assets/Scenes/MainMenu.unity
    guid: ed1016c304cf34299a7ca59d6191d272
  - enabled: 1
    path: Assets/Scenes/MainLevel.unity
    guid: bbf3b1f2759a54cd28224b5c8eaa161a
  m_configObjects: {}
